[gd_scene load_steps=5 format=2]

[ext_resource path="res://collectible/collectible.gd" type="Script" id=1]
[ext_resource path="res://assets/sprites/cherry.png" type="Texture" id=2]

[sub_resource type="RectangleShape2D" id=1]

custom_solver_bias = 0.0
extents = Vector2( 10.7237, 10 )

[sub_resource type="Animation" id=2]

resource_name = "cherry_anim"
length = 0.8
loop = true
step = 0.1
tracks/0/type = "value"
tracks/0/path = NodePath("Sprite:frame")
tracks/0/interp = 1
tracks/0/loop_wrap = true
tracks/0/imported = false
tracks/0/enabled = true
tracks/0/keys = {
"times": PoolRealArray( 0, 0.1, 0.2, 0.3, 0.4, 0.5, 0.6, 0.7 ),
"transitions": PoolRealArray( 1, 1, 1, 1, 1, 1, 1, 1 ),
"update": 1,
"values": [ 0, 1, 2, 3, 4, 3, 2, 1 ]
}

[node name="Collectible" type="Area2D"]

editor/display_folded = true
position = Vector2( 110.827, 74.9153 )
input_pickable = true
gravity_vec = Vector2( 0, 1 )
gravity = 98.0
linear_damp = 0.1
angular_damp = 1.0
audio_bus_override = false
audio_bus_name = "Master"
script = ExtResource( 1 )
__meta__ = {
"_edit_group_": true
}

[node name="Sprite" type="Sprite" parent="." index="0"]

texture = ExtResource( 2 )
hframes = 5
frame = 2
_sections_unfolded = [ "Animation", "Offset" ]

[node name="CollisionShape2D" type="CollisionShape2D" parent="." index="1"]

shape = SubResource( 1 )

[node name="AnimationPlayer" type="AnimationPlayer" parent="." index="2"]

root_node = NodePath("..")
autoplay = "cherry_anim"
playback_process_mode = 1
playback_default_blend_time = 0.0
playback_speed = 1.0
anims/cherry_anim = SubResource( 2 )
blend_times = [  ]

[connection signal="body_entered" from="." to="." method="_on_Collectible_body_entered"]


